{
  "update_id": 555602547,
  "callback_query": {
    "id": "1818287010227270500",
    "from": {
      "id": 423352934,
      "is_bot": false,
      "first_name": "Radik",
      "last_name": "Khaziev",
      "username": "xazrad",
      "language_code": "ru"
    },
    "message": {
      "message_id": 2269,
      "from": {
        "id": 499767245,
        "is_bot": true,
        "first_name": "SetProxy",
        "username": "setproxy_bot"
      },
      "chat": {
        "id": 423352934,
        "first_name": "Radik",
        "last_name": "Khaziev",
        "username": "xazrad",
        "type": "private"
      },
      "date": 1550765914,
      "text": "\u0412\u043e\u0437\u043d\u0438\u043a\u043b\u0438 \u0432\u043e\u043f\u0440\u043e\u0441\u044b?\n\u041d\u0430\u043f\u0438\u0448\u0438\u0442\u0435 \u043d\u0430\u043c @setproxyteam",
      "entities": [
        {
          "offset": 31,
          "length": 13,
          "type": "mention"
        }
      ]
    },
    "chat_instance": "4168118426855401700",
    "data": "/help,,"
  }
}