{
  "update_id": 555602744,
  "callback_query": {
    "id": "1818287008847073350",
    "from": {
      "id": 423352934,
      "is_bot": false,
      "first_name": "Radik",
      "last_name": "Khaziev",
      "username": "xazrad",
      "language_code": "ru"
    },
    "message": {
      "message_id": 2530,
      "from": {
        "id": 499767245,
        "is_bot": true,
        "first_name": "SetProxy",
        "username": "setproxy_bot"
      },
      "chat": {
        "id": 423352934,
        "first_name": "Radik",
        "last_name": "Khaziev",
        "username": "xazrad",
        "type": "private"
      },
      "date": 1551304526,
      "text": "\u0421\u043e\u0437\u0434\u0430\u043d\u0438\u0435 \u043d\u043e\u0432\u043e\u0433\u043e \u0441\u0435\u0440\u0432\u0435\u0440\u0430 \u0437\u0430\u0439\u043c\u0435\u0442 \u043f\u0440\u0438\u043c\u0435\u0440\u043d\u043e 2 \u043c\u0438\u043d\u0443\u0442\u044b.\n\u0412\u0430\u043c \u043f\u0440\u0435\u0434\u043e\u0441\u0442\u0430\u0432\u043b\u044f\u0435\u0442\u0441\u044f \u0431\u0435\u0441\u043f\u043b\u0430\u0442\u043d\u044b\u0439 \u043f\u0440\u043e\u0431\u043d\u044b\u0439 \u043f\u0435\u0440\u0438\u043e\u0434 \u043d\u0430 20 \u043c\u0438\u043d\u0443\u0442.\n\u041c\u044b \u043f\u0440\u0438\u0448\u043b\u0435\u043c \u0432\u0430\u043c \u0434\u0430\u043d\u043d\u044b\u0435 \u0434\u043b\u044f \u043f\u043e\u0434\u043a\u043b\u044e\u0447\u0435\u043d\u0438\u044f \u0438 \u0441\u0447\u0435\u0442 \u043d\u0430 \u043e\u043f\u043b\u0430\u0442\u0443.\n\u041f\u0440\u0438 \u043e\u0442\u0441\u0443\u0442\u0441\u0442\u0432\u0438\u0438 \u043e\u043f\u043b\u0430\u0442\u044b \u0432 \u0442\u0435\u0447\u0435\u043d\u0438\u0435 \u0431\u0435\u0441\u043f\u043b\u0430\u0442\u043d\u043e\u0433\u043e \u0442\u0435\u0441\u0442\u043e\u0432\u043e\u0433\u043e \u043f\u0435\u0440\u0438\u043e\u0434\u0430 \u0441\u0435\u0440\u0432\u0435\u0440 \u0431\u0443\u0434\u0435\u0442 \u0443\u0434\u0430\u043b\u0435\u043d."
    },
    "chat_instance": "4168118426855401700",
    "data": "/create,create,"
  }
}