{
  "update_id": 555602951,
  "callback_query": {
    "id": "1818287007092932052",
    "from": {
      "id": 423352934,
      "is_bot": false,
      "first_name": "Radik",
      "last_name": "Khaziev",
      "username": "xazrad",
      "language_code": "ru"
    },
    "message": {
      "message_id": 2853,
      "from": {
        "id": 499767245,
        "is_bot": true,
        "first_name": "SetProxy",
        "username": "setproxy_bot"
      },
      "chat": {
        "id": 423352934,
        "first_name": "Radik",
        "last_name": "Khaziev",
        "username": "xazrad",
        "type": "private"
      },
      "date": 1551713553,
      "text": "IP: 45.63.114.66\nPort: 443\nSecret key: 8427a00a03636f9db435b1852e4ac7ab\n\u0421\u043e\u0437\u0434\u0430\u043d: 2019-03-04 15:19:52 UTC\n\u041e\u043f\u043b\u0430\u0447\u0435\u043d \u0434\u043e: 2019-03-04 17:21:25 UTC\n\u0421\u0441\u044b\u043b\u043a\u0430 IP\nhttps://t.me/proxy?server=45.63.114.66&port=443&secret=dd8427a00a03636f9db435b1852e4ac7ab",
      "entities": [
        {
          "offset": 4,
          "length": 12,
          "type": "pre"
        },
        {
          "offset": 23,
          "length": 3,
          "type": "pre"
        },
        {
          "offset": 39,
          "length": 32,
          "type": "pre"
        },
        {
          "offset": 150,
          "length": 89,
          "type": "url"
        }
      ]
    },
    "chat_instance": "4168118426855401700",
    "data": "/server,change_ip,162"
  }
}