<?xml version="1.0" encoding="UTF-8" standalone="no"?>
<svg
   xmlns:dc="http://purl.org/dc/elements/1.1/"
   xmlns:cc="http://creativecommons.org/ns#"
   xmlns:rdf="http://www.w3.org/1999/02/22-rdf-syntax-ns#"
   xmlns:svg="http://www.w3.org/2000/svg"
   xmlns="http://www.w3.org/2000/svg"
   xmlns:sodipodi="http://sodipodi.sourceforge.net/DTD/sodipodi-0.dtd"
   xmlns:inkscape="http://www.inkscape.org/namespaces/inkscape"
   version="1.1"
   x="0px"
   y="0px"
   viewBox="0 0 454.97099 454.69901"
   enable-background="new 0 0 595.28 638"
   xml:space="preserve"
   id="svg1487"
   sodipodi:docname="3.svg"
   width="454.97101"
   height="454.69901"
   inkscape:version="0.92.3 (2405546, 2018-03-11)"><metadata
     id="metadata1493"><rdf:RDF><cc:Work
         rdf:about=""><dc:format>image/svg+xml</dc:format><dc:type
           rdf:resource="http://purl.org/dc/dcmitype/StillImage" /><dc:title></dc:title></cc:Work></rdf:RDF></metadata><defs
     id="defs1491" /><sodipodi:namedview
     pagecolor="#ffffff"
     bordercolor="#666666"
     borderopacity="1"
     objecttolerance="10"
     gridtolerance="10"
     guidetolerance="10"
     inkscape:pageopacity="0"
     inkscape:pageshadow="2"
     inkscape:window-width="1366"
     inkscape:window-height="842"
     id="namedview1489"
     showgrid="false"
     fit-margin-top="0"
     fit-margin-left="0"
     fit-margin-right="0"
     fit-margin-bottom="0"
     inkscape:zoom="0.29592476"
     inkscape:cx="239.82401"
     inkscape:cy="158.892"
     inkscape:window-x="291"
     inkscape:window-y="46"
     inkscape:window-maximized="0"
     inkscape:current-layer="svg1487" /><g
     id="g1481"
     transform="translate(-57.816,-102.943)"
     style="fill:#ffffff"><path
       d="m 356.436,521.675 c 5.954,-2.443 12.71,0.812 14.883,6.754 2.431,5.952 -0.812,12.726 -6.766,14.885 -12.711,4.857 -25.69,8.387 -38.953,10.82 -13.522,2.424 -27.052,3.508 -40.302,3.508 -62.754,0 -119.561,-25.421 -160.674,-66.529 -41.385,-41.127 -66.808,-97.922 -66.808,-160.951 0,-62.748 25.423,-119.553 66.808,-160.67 41.113,-41.117 97.92,-66.549 160.674,-66.549 62.752,0 119.559,25.432 160.943,66.549 41.115,41.117 66.546,97.922 66.546,160.67 0,6.488 -5.417,11.904 -11.631,11.904 -6.495,0 -11.909,-5.416 -11.909,-11.904 0,-56.268 -22.719,-107.12 -59.771,-144.182 -36.79,-36.778 -87.911,-59.766 -144.179,-59.766 -56.257,0 -107.391,22.987 -144.171,59.766 -37.06,37.062 -59.778,87.914 -59.778,144.182 0,56.53 22.719,107.383 59.778,144.444 36.78,36.788 87.914,59.775 144.171,59.775 12.449,0 24.349,-1.085 36.248,-3.235 11.903,-2.18 23.531,-5.415 34.891,-9.471 z"
       id="path1473"
       inkscape:connector-curvature="0"
       style="fill:#ffffff" /><path
       d="m 467.88,421.046 c 2.971,-5.679 10.008,-8.112 15.693,-5.141 5.952,2.971 8.115,10.008 5.412,15.686 -9.207,18.131 -20.297,34.893 -33.816,49.777 -13.251,14.876 -28.404,28.129 -45.447,39.213 -5.405,3.518 -12.713,1.905 -16.225,-3.246 -3.514,-5.404 -1.891,-12.705 3.512,-16.224 15.153,-9.999 28.946,-21.903 40.846,-35.165 11.9,-13.517 21.908,-28.675 30.025,-44.9 z"
       id="path1475"
       inkscape:connector-curvature="0"
       style="fill:#ffffff" /><path
       d="m 495.202,389.673 c 6.216,0 11.359,-5.142 11.359,-11.367 0,-6.217 -5.144,-11.357 -11.359,-11.357 -6.217,0 -11.359,5.141 -11.359,11.357 0,6.225 5.142,11.367 11.359,11.367 z"
       id="path1477"
       inkscape:connector-curvature="0"
       style="clip-rule:evenodd;fill:#ffffff;fill-rule:evenodd" /><path
       d="m 287.739,220.344 c 66.805,0 120.899,45.164 120.899,100.894 0,51.116 -55.177,101.431 -88.713,130.645 0.271,-0.812 3.782,-23.262 5.674,-35.166 -11.897,3.519 -24.61,5.141 -37.86,5.141 -66.547,0 -120.639,-45.174 -120.639,-100.619 0.001,-55.731 54.092,-100.895 120.639,-100.895 z m -54.916,90.885 c 7.037,0 12.711,5.668 12.711,12.705 0,7.037 -5.674,12.715 -12.711,12.715 -7.035,0 -12.711,-5.678 -12.711,-12.715 0,-7.037 5.676,-12.705 12.711,-12.705 z m 54.916,0 c 7.027,0 12.71,5.668 12.71,12.705 0,7.037 -5.683,12.715 -12.71,12.715 -7.037,0 -12.719,-5.678 -12.719,-12.715 0,-7.037 5.682,-12.705 12.719,-12.705 z m 54.906,0 c 7.027,0 12.711,5.668 12.711,12.705 0,7.037 -5.684,12.715 -12.711,12.715 -7.036,0 -12.71,-5.678 -12.71,-12.715 0,-7.037 5.673,-12.705 12.71,-12.705 z"
       id="path1479"
       inkscape:connector-curvature="0"
       style="clip-rule:evenodd;fill:#ffffff;fill-rule:evenodd" /></g></svg>